…
#join our gdp and origin gdp
mydata_compare <-
  left_join(gdp_origin, needed_GDP_data, by = "compare_name") %>%
  #calculate difference
  mutate(difference_gdp = (GDP - value) / value * 100)

#create a new dataset to see clearly
#only data needed
show_difference <- mydata_compare[, c(1, 3, 4, 14, 20)]
#change variable name
names(show_difference)[3:4] <- c("origin_GDP", "calculated_GDP")

show_difference

## # A tibble: 144 x 5
##    Country.x year  origin_GDP calculated_GDP difference_gdp
##    <chr>     <chr>      <dbl>          <dbl>          <dbl>
##  1 Germany   1970       1534.          -13.5           3.03
##  2 Germany   1971       1582.          -23.3           3.54
##  3 Germany   1972       1650.          -25.3           3.56
##  4 Germany   1973       1729.          -12.8           2.92
##  5 Germany   1974       1744.           10.9           1.78
##  6 Germany   1975       1729.          -10.0           2.93
##  7 Germany   1976       1815.          -12.4           2.83
##  8 Germany   1977       1876.          -12.1           2.77
##  9 Germany   1978       1932.          -19.5           3.05
## 10 Germany   1979       2012.          -33.4           3.44
## # ... with 134 more rows
…
